Chapter 3 Survey Analysis | A Quick Start Guide to Survey Research
…
3.2.5 Removing duplicate values

Respondents may come back to the survey, or try to take the survey a second time on a new device. To ensure a respondent isn’t counted more than once in a survey, be sure to check for duplicate values by using a unique identifier. Common unique indentifiers include: email, embedded user id, or IP address.

View duplicates using janitor package

library(janitor)

df %>% get_dupes(email) # get_dupes is a function available through janitor, can use more than one column to view duplicates

## # A tibble: 108 × 37
##    email     dupe_count StartDate           EndDate             Status  IPAddress
##    <glue>         <int> <dttm>              <dttm>              <chr>   <lgl>    
##  1 dr@gmail…          7 2019-01-15 13:36:48 2019-01-15 13:36:48 Survey… NA       
##  2 dr@gmail…          7 2019-01-15 13:36:56 2019-01-15 13:36:56 Survey… NA       
##  3 dr@gmail…          7 2019-01-15 13:37:19 2019-01-15 13:37:19 Survey… NA       
##  4 dr@gmail…          7 2019-01-15 13:37:20 2019-01-15 13:37:20 Survey… NA       
##  5 dr@gmail…          7 2019-01-15 13:37:25 2019-01-15 13:37:25 Survey… NA       
##  6 dr@gmail…          7 2019-01-15 13:37:29 2019-01-15 13:37:29 Survey… NA       
##  7 dr@gmail…          7 2019-01-15 13:37:48 2019-01-15 13:37:48 Survey… NA       
##  8 dr@hotma…          4 2019-01-15 13:36:57 2019-01-15 13:36:57 Survey… NA       
##  9 dr@hotma…          4 2019-01-15 13:37:10 2019-01-15 13:37:10 Survey… NA       
## 10 dr@hotma…          4 2019-01-15 13:37:23 2019-01-15 13:37:23 Survey… NA       
## # … with 98 more rows, and 31 more variables: Progress <dbl>,
## #   Duration (in seconds) <dbl>, Finished <lgl>, RecordedDate <dttm>,
## #   ResponseId <chr>, RecipientLastName <lgl>, RecipientFirstName <lgl>,
## #   RecipientEmail <lgl>, ExternalReference <lgl>, LocationLatitude <dbl>,
## #   LocationLongitude <dbl>, DistributionChannel <chr>, UserLanguage <lgl>,
## #   Q1 <chr>, Q2 <chr>, Q3_4 <chr>, Q3_5 <chr>, Q3_6 <chr>, Q3_7 <chr>,
## #   Q3_8 <chr>, Q3_9 <chr>, Q3_10 <chr>, Q3_10_TEXT <chr>, Q4 <chr>, Q5 <chr>, …

Manual way to view duplicates

u_id <- quo(email) # Store unique identifier column, can be IP address, email, etc. 

df %>% group_by(!!u_id) %>% 
       tally() %>% 
       filter(n > 1)

## # A tibble: 23 × 2
##    email                n
##    <glue>           <int>
##  1 dr@gmail.com         7
##  2 dr@hotmail.com       4
##  3 dr@me.com            7
##  4 dr@outlook.com       7
##  5 dr@yahoo.com         8
##  6 ken@hotmail.com      2
##  7 miss@gmail.com       3
##  8 miss@hotmail.com     2
##  9 miss@me.com          5
## 10 miss@outlook.com     4
## # … with 13 more rows
…
