C Generating fake data | A Quick Start Guide to Survey Research
…
respondent_data <- ch_generate('name', 'job', 'phone_number', n = 502) %>% 
                    separate(name, "first", extra = "drop", remove=FALSE) %>% 
                    mutate(email = glue("{first_lower}{email_domain}", 
                                          first_lower = tolower(first), 
                                          email_domain = sample(email_domains, 502, replace=TRUE) ), 
                           gender = sample(c("male", "female", "other", "prefer not to say"), 502, replace=TRUE, prob=c(0.55, 0.35, 0.05, 0.05)), 
                           age = sample(c("Under 18", "18-34", "35-54", "55+"), 502, replace=TRUE, prob = c(0.05, 0.25, 0.40, 0.30))
        )

write_csv(respondent_data, "./sample_data/respondent_data.csv")

respondent_data

## # A tibble: 502 x 7
##    name        first   job           phone_number  email    gender    age  
##    <chr>       <chr>   <chr>         <chr>         <S3: gl> <chr>     <chr>
##  1 Reta Hoppe  Reta    Claims inspe… 412-194-2271… reta@gm… male      18-34
##  2 Ms. Sherly… Ms      Personal ass… +42(0)228028… ms@me.c… female    35-54
##  3 Louisiana … Louisi… Psychologist… (500)055-0844 louisia… male      18-34
##  4 Annabell W… Annabe… Production m… 094-612-0373  annabel… male      35-54
##  5 Hilbert Gl… Hilbert Production a… 306-834-5707… hilbert… prefer n… 18-34
##  6 Oddie Brad… Oddie   Horticultura… 046-084-4734  oddie@g… male      35-54
##  7 Libbie Erd… Libbie  Academic lib… (823)409-942… libbie@… female    35-54
##  8 Joey Metz   Joey    Claims inspe… +94(7)687119… joey@gm… female    55+  
##  9 Kelis Brad… Kelis   Race relatio… 1-304-433-71… kelis@g… prefer n… 18-34
## 10 Stacia Ber… Stacia  Chartered ma… 687-383-8594… stacia@… male      18-34
## # … with 492 more rows
